<svg xmlns="http://www.w3.org/2000/svg" xmlns:xlink="http://www.w3.org/1999/xlink" width="293.418" height="295.632" viewBox="0 0 293.418 295.632">
  <defs>
    <clipPath id="clip-path">
      <path id="Path_2" data-name="Path 2" d="M111.752,0,223.508,193.586l-112.792-2.812L0,193.586Z" fill="#a83e3e"/>
    </clipPath>
    <linearGradient id="linear-gradient" x1="1.254" y1="0.056" x2="0" y2="1" gradientUnits="objectBoundingBox">
      <stop offset="0" stop-color="#6200ff"/>
      <stop offset="1" stop-color="#ff0093"/>
    </linearGradient>
  </defs>
  <g id="Group_2" data-name="Group 2" transform="translate(143.862) rotate(48)" clip-path="url(#clip-path)">
    <g id="Group_1" data-name="Group 1">
      <path id="Path_1" data-name="Path 1" d="M111.752,0,223.508,193.586l-112.792-2.812L0,193.586Z" fill="#a83e3e"/>
      <rect id="Rectangle_7" data-name="Rectangle 7" width="220.749" height="190.188" transform="translate(1.123 2.212)" fill="url(#linear-gradient)" style="mix-blend-mode: color;isolation: isolate"/>
    </g>
  </g>
</svg>
